PWD /Users/desertfrog/local/LMU/ss21-msaml/material
INPUT /usr/local/texlive/2021/texmf-var/web2c/luahbtex/lualatex.fmt
INPUT ./SS21-MsAML__03-1__Perceptron_convergence.tex
OUTPUT SS21-MsAML__03-1__Perceptron_convergence.log
INPUT /usr/local/texlive/2021/texmf-dist/tex/latex/latexconfig/lualatexquotejobname.lua
INPUT /usr/local/texlive/2021/texmf-dist/tex/latex/base/ltluatex.lua
INPUT /usr/local/texlive/2021/texmf-dist/tex/luatex/luaotfload/luaotfload-main.lua
INPUT /usr/local/texlive/2021/texmf-dist/tex/luatex/luaotfload/luaotfload.lua
INPUT /usr/local/texlive/2021/texmf-dist/tex/luatex/luaotfload/luaotfload-init.lua
INPUT /usr/local/texlive/2021/texmf-dist/tex/luatex/lualibs/lualibs.lua
INPUT /usr/local/texlive/2021/texmf-dist/tex/luatex/lualibs/lualibs-basic.lua
INPUT /usr/local/texlive/2021/texmf-dist/tex/luatex/lualibs/lualibs-basic-merged.lua
INPUT /usr/local/texlive/2021/texmf-dist/tex/luatex/lualibs/lualibs-compat.lua
INPUT /usr/local/texlive/2021/texmf-dist/tex/luatex/lualibs/lualibs-extended.lua
INPUT /usr/local/texlive/2021/texmf-dist/tex/luatex/lualibs/lualibs-extended-merged.lua
INPUT /usr/local/texlive/2021/texmf-dist/tex/luatex/luaotfload/luaotfload-log.lua
INPUT /usr/local/texlive/2021/texmf-dist/tex/luatex/luaotfload/fontloader-basics-gen.lua
OUTPUT /Users/desertfrog/Library/texlive/2021/texmf-var/m_t_x_t_e_s_t.tmp
INPUT /usr/local/texlive/2021/texmf-dist/tex/luatex/luaotfload/luaotfload-parsers.lua
INPUT /usr/local/texlive/2021/texmf-dist/tex/luatex/luaotfload/luaotfload-configuration.lua
INPUT /usr/local/texlive/2021/texmf-dist/tex/luatex/luaotfload/luaotfload-status.lua
INPUT /usr/local/texlive/2021/texmf-dist/tex/luatex/luaotfload/fontloader-2021-01-07.lua
INPUT /usr/local/texlive/2021/texmf-dist/tex/luatex/luaotfload/luaotfload-fallback.lua
INPUT /usr/local/texlive/2021/texmf-dist/tex/luatex/luaotfload/luaotfload-multiscript.lua
INPUT /usr/local/texlive/2021/texmf-dist/tex/luatex/luaotfload/luaotfload-scripts.lua
INPUT /usr/local/texlive/2021/texmf-dist/tex/generic/unicode-data/ScriptExtensions.txt
INPUT /usr/local/texlive/2021/texmf-dist/tex/generic/unicode-data/Scripts.txt
INPUT /usr/local/texlive/2021/texmf-dist/tex/luatex/luaotfload/luaotfload-loaders.lua
INPUT /usr/local/texlive/2021/texmf-dist/tex/luatex/luaotfload/luaotfload-database.lua
INPUT /usr/local/texlive/2021/texmf-dist/tex/luatex/luaotfload/luaotfload-unicode.lua
INPUT /usr/local/texlive/2021/texmf-dist/tex/generic/unicode-data/CaseFolding.txt
INPUT /usr/local/texlive/2021/texmf-dist/tex/generic/unicode-data/UnicodeData.txt
INPUT /usr/local/texlive/2021/texmf-dist/tex/generic/unicode-data/UnicodeData.txt
INPUT /usr/local/texlive/2021/texmf-dist/tex/generic/unicode-data/PropList.txt
INPUT /usr/local/texlive/2021/texmf-dist/tex/generic/unicode-data/WordBreakProperty.txt
INPUT /usr/local/texlive/2021/texmf-dist/tex/generic/unicode-data/SpecialCasing.txt
INPUT /usr/local/texlive/2021/texmf-dist/tex/luatex/luaotfload/luaotfload-colors.lua
INPUT /usr/local/texlive/2021/texmf-dist/tex/luatex/luaotfload/luaotfload-resolvers.lua
INPUT /usr/local/texlive/2021/texmf-dist/tex/luatex/luaotfload/luaotfload-features.lua
INPUT /usr/local/texlive/2021/texmf-dist/tex/luatex/luaotfload/luaotfload-harf-define.lua
INPUT /usr/local/texlive/2021/texmf-dist/tex/luatex/luaotfload/luaotfload-harf-plug.lua
INPUT /usr/local/texlive/2021/texmf-dist/tex/luatex/luaotfload/luaotfload-letterspace.lua
INPUT /usr/local/texlive/2021/texmf-dist/tex/luatex/luaotfload/luaotfload-embolden.lua
INPUT /usr/local/texlive/2021/texmf-dist/tex/luatex/luaotfload/luaotfload-notdef.lua
INPUT /usr/local/texlive/2021/texmf-dist/tex/generic/unicode-data/UnicodeData.txt
INPUT /usr/local/texlive/2021/texmf-dist/tex/generic/unicode-data/PropList.txt
INPUT /usr/local/texlive/2021/texmf-dist/tex/luatex/luaotfload/luaotfload-suppress.lua
INPUT /usr/local/texlive/2021/texmf-dist/tex/luatex/luaotfload/luaotfload-szss.lua
INPUT /usr/local/texlive/2021/texmf-dist/tex/luatex/luaotfload/luaotfload-auxiliary.lua
INPUT /usr/local/texlive/2021/texmf-dist/tex/luatex/luaotfload/luaotfload-tounicode.lua
INPUT /usr/local/texlive/2021/texmf-dist/tex/luatex/luaotfload/luaotfload-case.lua
INPUT /usr/local/texlive/2021/texmf-dist/tex/latex/l3kernel/expl3.lua
INPUT /usr/local/texlive/2021/texmf-dist/tex/latex/base/article.cls
INPUT /usr/local/texlive/2021/texmf-dist/tex/latex/base/article.cls
INPUT /usr/local/texlive/2021/texmf-dist/tex/latex/base/article.cls
INPUT /usr/local/texlive/2021/texmf-dist/tex/latex/base/size12.clo
INPUT /usr/local/texlive/2021/texmf-dist/tex/latex/base/size12.clo
INPUT /Users/desertfrog/Library/texlive/2021/texmf-var/luatex-cache/generic/names/luaotfload-names.luc
INPUT /Users/desertfrog/Library/texlive/2021/texmf-var/luatex-cache/generic/fonts/otl/lmroman12-regular.luc
INPUT /usr/local/texlive/2021/texmf-dist/tex/latex/amsmath/amsmath.sty
INPUT /usr/local/texlive/2021/texmf-dist/tex/latex/amsmath/amsmath.sty
INPUT /usr/local/texlive/2021/texmf-dist/tex/latex/amsmath/amsmath.sty
INPUT /usr/local/texlive/2021/texmf-dist/tex/latex/amsmath/amstext.sty
INPUT /usr/local/texlive/2021/texmf-dist/tex/latex/amsmath/amstext.sty
INPUT /usr/local/texlive/2021/texmf-dist/tex/latex/amsmath/amstext.sty
INPUT /usr/local/texlive/2021/texmf-dist/tex/latex/amsmath/amsgen.sty
INPUT /usr/local/texlive/2021/texmf-dist/tex/latex/amsmath/amsgen.sty
INPUT /usr/local/texlive/2021/texmf-dist/tex/latex/amsmath/amsgen.sty
INPUT /usr/local/texlive/2021/texmf-dist/tex/latex/amsmath/amsbsy.sty
INPUT /usr/local/texlive/2021/texmf-dist/tex/latex/amsmath/amsbsy.sty
INPUT /usr/local/texlive/2021/texmf-dist/tex/latex/amsmath/amsbsy.sty
INPUT /usr/local/texlive/2021/texmf-dist/tex/latex/amsmath/amsopn.sty
INPUT /usr/local/texlive/2021/texmf-dist/tex/latex/amsmath/amsopn.sty
INPUT /usr/local/texlive/2021/texmf-dist/tex/latex/amsmath/amsopn.sty
INPUT /usr/local/texlive/2021/texmf-dist/tex/latex/amsfonts/amssymb.sty
INPUT /usr/local/texlive/2021/texmf-dist/tex/latex/amsfonts/amssymb.sty
INPUT /usr/local/texlive/2021/texmf-dist/tex/latex/amsfonts/amssymb.sty
INPUT /usr/local/texlive/2021/texmf-dist/tex/latex/amsfonts/amsfonts.sty
INPUT /usr/local/texlive/2021/texmf-dist/tex/latex/amsfonts/amsfonts.sty
INPUT /usr/local/texlive/2021/texmf-dist/tex/latex/amsfonts/amsfonts.sty
INPUT /usr/local/texlive/2021/texmf-dist/tex/latex/lm/lmodern.sty
INPUT /usr/local/texlive/2021/texmf-dist/tex/latex/lm/lmodern.sty
INPUT /usr/local/texlive/2021/texmf-dist/tex/latex/lm/lmodern.sty
INPUT /usr/local/texlive/2021/texmf-dist/tex/generic/iftex/iftex.sty
INPUT /usr/local/texlive/2021/texmf-dist/tex/generic/iftex/iftex.sty
INPUT /usr/local/texlive/2021/texmf-dist/tex/generic/iftex/iftex.sty
INPUT /usr/local/texlive/2021/texmf-dist/tex/latex/unicode-math/unicode-math.sty
INPUT /usr/local/texlive/2021/texmf-dist/tex/latex/unicode-math/unicode-math.sty
INPUT /usr/local/texlive/2021/texmf-dist/tex/latex/unicode-math/unicode-math.sty
INPUT /usr/local/texlive/2021/texmf-dist/tex/latex/l3kernel/expl3.sty
INPUT /usr/local/texlive/2021/texmf-dist/tex/latex/l3kernel/expl3.sty
INPUT /usr/local/texlive/2021/texmf-dist/tex/latex/l3kernel/expl3.sty
INPUT /usr/local/texlive/2021/texmf-dist/tex/latex/l3backend/l3backend-luatex.def
INPUT /usr/local/texlive/2021/texmf-dist/tex/latex/l3backend/l3backend-luatex.def
INPUT /usr/local/texlive/2021/texmf-dist/tex/latex/l3backend/l3backend-luatex.def
INPUT /usr/local/texlive/2021/texmf-dist/tex/latex/unicode-math/unicode-math-luatex.sty
INPUT /usr/local/texlive/2021/texmf-dist/tex/latex/unicode-math/unicode-math-luatex.sty
INPUT /usr/local/texlive/2021/texmf-dist/tex/latex/unicode-math/unicode-math-luatex.sty
INPUT /usr/local/texlive/2021/texmf-dist/tex/latex/l3packages/xparse/xparse.sty
INPUT /usr/local/texlive/2021/texmf-dist/tex/latex/l3packages/xparse/xparse.sty
INPUT /usr/local/texlive/2021/texmf-dist/tex/latex/l3packages/xparse/xparse.sty
INPUT /usr/local/texlive/2021/texmf-dist/tex/latex/l3packages/xparse/xparse-2020-10-01.sty
INPUT /usr/local/texlive/2021/texmf-dist/tex/latex/l3packages/xparse/xparse-2020-10-01.sty
INPUT /usr/local/texlive/2021/texmf-dist/tex/latex/l3packages/xparse/xparse-2020-10-01.sty
INPUT /usr/local/texlive/2021/texmf-dist/tex/latex/l3packages/xparse/xparse-generic.tex
INPUT /usr/local/texlive/2021/texmf-dist/tex/latex/l3packages/l3keys2e/l3keys2e.sty
INPUT /usr/local/texlive/2021/texmf-dist/tex/latex/l3packages/l3keys2e/l3keys2e.sty
INPUT /usr/local/texlive/2021/texmf-dist/tex/latex/l3packages/l3keys2e/l3keys2e.sty
INPUT /usr/local/texlive/2021/texmf-dist/tex/latex/fontspec/fontspec.sty
INPUT /usr/local/texlive/2021/texmf-dist/tex/latex/fontspec/fontspec.sty
INPUT /usr/local/texlive/2021/texmf-dist/tex/latex/fontspec/fontspec.sty
INPUT /usr/local/texlive/2021/texmf-dist/tex/latex/fontspec/fontspec.lua
INPUT /usr/local/texlive/2021/texmf-dist/tex/latex/fontspec/fontspec-luatex.sty
INPUT /usr/local/texlive/2021/texmf-dist/tex/latex/fontspec/fontspec-luatex.sty
INPUT /usr/local/texlive/2021/texmf-dist/tex/latex/fontspec/fontspec-luatex.sty
INPUT /usr/local/texlive/2021/texmf-dist/tex/latex/base/fontenc.sty
INPUT /usr/local/texlive/2021/texmf-dist/tex/latex/base/fontenc.sty
INPUT /usr/local/texlive/2021/texmf-dist/tex/latex/base/fontenc.sty
INPUT /usr/local/texlive/2021/texmf-dist/tex/latex/fontspec/fontspec.cfg
INPUT /usr/local/texlive/2021/texmf-dist/tex/latex/fontspec/fontspec.cfg
INPUT /Users/desertfrog/Library/texlive/2021/texmf-var/luatex-cache/generic/fonts/otl/lmroman12-bold.luc
INPUT /usr/local/texlive/2021/texmf-dist/tex/latex/base/fix-cm.sty
INPUT /usr/local/texlive/2021/texmf-dist/tex/latex/base/fix-cm.sty
INPUT /usr/local/texlive/2021/texmf-dist/tex/latex/base/fix-cm.sty
INPUT /usr/local/texlive/2021/texmf-dist/tex/latex/base/ts1enc.def
INPUT /usr/local/texlive/2021/texmf-dist/tex/latex/base/ts1enc.def
INPUT /usr/local/texlive/2021/texmf-dist/tex/lualatex/lualatex-math/lualatex-math.sty
INPUT /usr/local/texlive/2021/texmf-dist/tex/lualatex/lualatex-math/lualatex-math.sty
INPUT /usr/local/texlive/2021/texmf-dist/tex/lualatex/lualatex-math/lualatex-math.sty
INPUT /usr/local/texlive/2021/texmf-dist/tex/latex/etoolbox/etoolbox.sty
INPUT /usr/local/texlive/2021/texmf-dist/tex/latex/etoolbox/etoolbox.sty
INPUT /usr/local/texlive/2021/texmf-dist/tex/latex/etoolbox/etoolbox.sty
INPUT /usr/local/texlive/2021/texmf-dist/tex/lualatex/lualatex-math/lualatex-math.lua
INPUT /usr/local/texlive/2021/texmf-dist/tex/latex/unicode-math/unicode-math-table.tex
INPUT /usr/local/texlive/2021/texmf-dist/tex/latex/upquote/upquote.sty
INPUT /usr/local/texlive/2021/texmf-dist/tex/latex/upquote/upquote.sty
INPUT /usr/local/texlive/2021/texmf-dist/tex/latex/upquote/upquote.sty
INPUT /usr/local/texlive/2021/texmf-dist/tex/latex/upquote/upquote.sty
INPUT /usr/local/texlive/2021/texmf-dist/tex/latex/base/textcomp.sty
INPUT /usr/local/texlive/2021/texmf-dist/tex/latex/base/textcomp.sty
INPUT /usr/local/texlive/2021/texmf-dist/tex/latex/base/textcomp.sty
INPUT /usr/local/texlive/2021/texmf-dist/tex/latex/microtype/microtype.sty
INPUT /usr/local/texlive/2021/texmf-dist/tex/latex/microtype/microtype.sty
INPUT /usr/local/texlive/2021/texmf-dist/tex/latex/microtype/microtype.sty
INPUT /usr/local/texlive/2021/texmf-dist/tex/latex/microtype/microtype.sty
INPUT /usr/local/texlive/2021/texmf-dist/tex/latex/graphics/keyval.sty
INPUT /usr/local/texlive/2021/texmf-dist/tex/latex/graphics/keyval.sty
INPUT /usr/local/texlive/2021/texmf-dist/tex/latex/graphics/keyval.sty
INPUT /usr/local/texlive/2021/texmf-dist/tex/latex/microtype/microtype-luatex.def
INPUT /usr/local/texlive/2021/texmf-dist/tex/latex/microtype/microtype-luatex.def
INPUT /usr/local/texlive/2021/texmf-dist/tex/latex/microtype/microtype.lua
INPUT /usr/local/texlive/2021/texmf-dist/tex/latex/microtype/microtype.cfg
INPUT /usr/local/texlive/2021/texmf-dist/tex/latex/microtype/microtype.cfg
INPUT /usr/local/texlive/2021/texmf-dist/tex/latex/microtype/microtype.cfg
INPUT /usr/local/texlive/2021/texmf-dist/tex/latex/parskip/parskip.sty
INPUT /usr/local/texlive/2021/texmf-dist/tex/latex/parskip/parskip.sty
INPUT /usr/local/texlive/2021/texmf-dist/tex/latex/parskip/parskip.sty
INPUT /usr/local/texlive/2021/texmf-dist/tex/latex/parskip/parskip.sty
INPUT /usr/local/texlive/2021/texmf-dist/tex/latex/kvoptions/kvoptions.sty
INPUT /usr/local/texlive/2021/texmf-dist/tex/latex/kvoptions/kvoptions.sty
INPUT /usr/local/texlive/2021/texmf-dist/tex/latex/kvoptions/kvoptions.sty
INPUT /usr/local/texlive/2021/texmf-dist/tex/generic/ltxcmds/ltxcmds.sty
INPUT /usr/local/texlive/2021/texmf-dist/tex/generic/ltxcmds/ltxcmds.sty
INPUT /usr/local/texlive/2021/texmf-dist/tex/generic/ltxcmds/ltxcmds.sty
INPUT /usr/local/texlive/2021/texmf-dist/tex/generic/kvsetkeys/kvsetkeys.sty
INPUT /usr/local/texlive/2021/texmf-dist/tex/generic/kvsetkeys/kvsetkeys.sty
INPUT /usr/local/texlive/2021/texmf-dist/tex/generic/kvsetkeys/kvsetkeys.sty
INPUT /usr/local/texlive/2021/texmf-dist/tex/latex/xcolor/xcolor.sty
INPUT /usr/local/texlive/2021/texmf-dist/tex/latex/xcolor/xcolor.sty
INPUT /usr/local/texlive/2021/texmf-dist/tex/latex/xcolor/xcolor.sty
INPUT /usr/local/texlive/2021/texmf-dist/tex/latex/graphics-cfg/color.cfg
INPUT /usr/local/texlive/2021/texmf-dist/tex/latex/graphics-cfg/color.cfg
INPUT /usr/local/texlive/2021/texmf-dist/tex/latex/graphics-def/luatex.def
INPUT /usr/local/texlive/2021/texmf-dist/tex/latex/graphics-def/luatex.def
INPUT /usr/local/texlive/2021/texmf-dist/tex/latex/graphics/dvipsnam.def
INPUT /usr/local/texlive/2021/texmf-dist/tex/latex/graphics/dvipsnam.def
INPUT /usr/local/texlive/2021/texmf-dist/tex/latex/xcolor/svgnam.def
INPUT /usr/local/texlive/2021/texmf-dist/tex/latex/xcolor/svgnam.def
INPUT /usr/local/texlive/2021/texmf-dist/tex/latex/xcolor/x11nam.def
INPUT /usr/local/texlive/2021/texmf-dist/tex/latex/xcolor/x11nam.def
INPUT /usr/local/texlive/2021/texmf-dist/tex/latex/xurl/xurl.sty
INPUT /usr/local/texlive/2021/texmf-dist/tex/latex/xurl/xurl.sty
INPUT /usr/local/texlive/2021/texmf-dist/tex/latex/xurl/xurl.sty
INPUT /usr/local/texlive/2021/texmf-dist/tex/latex/xurl/xurl.sty
INPUT /usr/local/texlive/2021/texmf-dist/tex/latex/url/url.sty
INPUT /usr/local/texlive/2021/texmf-dist/tex/latex/url/url.sty
INPUT /usr/local/texlive/2021/texmf-dist/tex/latex/url/url.sty
INPUT /usr/local/texlive/2021/texmf-dist/tex/latex/bookmark/bookmark.sty
INPUT /usr/local/texlive/2021/texmf-dist/tex/latex/bookmark/bookmark.sty
INPUT /usr/local/texlive/2021/texmf-dist/tex/latex/bookmark/bookmark.sty
INPUT /usr/local/texlive/2021/texmf-dist/tex/latex/bookmark/bookmark.sty
INPUT /usr/local/texlive/2021/texmf-dist/tex/latex/hyperref/hyperref.sty
INPUT /usr/local/texlive/2021/texmf-dist/tex/latex/hyperref/hyperref.sty
INPUT /usr/local/texlive/2021/texmf-dist/tex/latex/hyperref/hyperref.sty
INPUT /usr/local/texlive/2021/texmf-dist/tex/generic/pdftexcmds/pdftexcmds.sty
INPUT /usr/local/texlive/2021/texmf-dist/tex/generic/pdftexcmds/pdftexcmds.sty
INPUT /usr/local/texlive/2021/texmf-dist/tex/generic/pdftexcmds/pdftexcmds.sty
INPUT /usr/local/texlive/2021/texmf-dist/tex/generic/infwarerr/infwarerr.sty
INPUT /usr/local/texlive/2021/texmf-dist/tex/generic/infwarerr/infwarerr.sty
INPUT /usr/local/texlive/2021/texmf-dist/tex/generic/infwarerr/infwarerr.sty
INPUT /usr/local/texlive/2021/texmf-dist/tex/generic/pdftexcmds/pdftexcmds.lua
INPUT /usr/local/texlive/2021/texmf-dist/tex/generic/kvdefinekeys/kvdefinekeys.sty
INPUT /usr/local/texlive/2021/texmf-dist/tex/generic/kvdefinekeys/kvdefinekeys.sty
INPUT /usr/local/texlive/2021/texmf-dist/tex/generic/kvdefinekeys/kvdefinekeys.sty
INPUT /usr/local/texlive/2021/texmf-dist/tex/generic/pdfescape/pdfescape.sty
INPUT /usr/local/texlive/2021/texmf-dist/tex/generic/pdfescape/pdfescape.sty
INPUT /usr/local/texlive/2021/texmf-dist/tex/generic/pdfescape/pdfescape.sty
INPUT /usr/local/texlive/2021/texmf-dist/tex/latex/hycolor/hycolor.sty
INPUT /usr/local/texlive/2021/texmf-dist/tex/latex/hycolor/hycolor.sty
INPUT /usr/local/texlive/2021/texmf-dist/tex/latex/hycolor/hycolor.sty
INPUT /usr/local/texlive/2021/texmf-dist/tex/latex/letltxmacro/letltxmacro.sty
INPUT /usr/local/texlive/2021/texmf-dist/tex/latex/letltxmacro/letltxmacro.sty
INPUT /usr/local/texlive/2021/texmf-dist/tex/latex/letltxmacro/letltxmacro.sty
INPUT /usr/local/texlive/2021/texmf-dist/tex/latex/auxhook/auxhook.sty
INPUT /usr/local/texlive/2021/texmf-dist/tex/latex/auxhook/auxhook.sty
INPUT /usr/local/texlive/2021/texmf-dist/tex/latex/auxhook/auxhook.sty
INPUT /usr/local/texlive/2021/texmf-dist/tex/latex/hyperref/pd1enc.def
INPUT /usr/local/texlive/2021/texmf-dist/tex/latex/hyperref/pd1enc.def
INPUT /usr/local/texlive/2021/texmf-dist/tex/latex/hyperref/hyperref-langpatches.def
INPUT /usr/local/texlive/2021/texmf-dist/tex/latex/hyperref/hyperref-langpatches.def
INPUT /usr/local/texlive/2021/texmf-dist/tex/generic/intcalc/intcalc.sty
INPUT /usr/local/texlive/2021/texmf-dist/tex/generic/intcalc/intcalc.sty
INPUT /usr/local/texlive/2021/texmf-dist/tex/generic/intcalc/intcalc.sty
INPUT /usr/local/texlive/2021/texmf-dist/tex/generic/etexcmds/etexcmds.sty
INPUT /usr/local/texlive/2021/texmf-dist/tex/generic/etexcmds/etexcmds.sty
INPUT /usr/local/texlive/2021/texmf-dist/tex/generic/etexcmds/etexcmds.sty
INPUT /usr/local/texlive/2021/texmf-dist/tex/latex/hyperref/puenc.def
INPUT /usr/local/texlive/2021/texmf-dist/tex/latex/hyperref/puenc.def
INPUT /usr/local/texlive/2021/texmf-dist/tex/generic/bitset/bitset.sty
INPUT /usr/local/texlive/2021/texmf-dist/tex/generic/bitset/bitset.sty
INPUT /usr/local/texlive/2021/texmf-dist/tex/generic/bitset/bitset.sty
INPUT /usr/local/texlive/2021/texmf-dist/tex/generic/bigintcalc/bigintcalc.sty
INPUT /usr/local/texlive/2021/texmf-dist/tex/generic/bigintcalc/bigintcalc.sty
INPUT /usr/local/texlive/2021/texmf-dist/tex/generic/bigintcalc/bigintcalc.sty
INPUT /usr/local/texlive/2021/texmf-dist/tex/latex/base/atbegshi-ltx.sty
INPUT /usr/local/texlive/2021/texmf-dist/tex/latex/base/atbegshi-ltx.sty
INPUT /usr/local/texlive/2021/texmf-dist/tex/latex/base/atbegshi-ltx.sty
INPUT /usr/local/texlive/2021/texmf-dist/tex/latex/hyperref/hluatex.def
INPUT /usr/local/texlive/2021/texmf-dist/tex/latex/hyperref/hluatex.def
INPUT /usr/local/texlive/2021/texmf-dist/tex/generic/stringenc/stringenc.sty
INPUT /usr/local/texlive/2021/texmf-dist/tex/generic/stringenc/stringenc.sty
INPUT /usr/local/texlive/2021/texmf-dist/tex/generic/stringenc/stringenc.sty
INPUT /usr/local/texlive/2021/texmf-dist/tex/latex/base/atveryend-ltx.sty
INPUT /usr/local/texlive/2021/texmf-dist/tex/latex/base/atveryend-ltx.sty
INPUT /usr/local/texlive/2021/texmf-dist/tex/latex/base/atveryend-ltx.sty
INPUT /usr/local/texlive/2021/texmf-dist/tex/latex/rerunfilecheck/rerunfilecheck.sty
INPUT /usr/local/texlive/2021/texmf-dist/tex/latex/rerunfilecheck/rerunfilecheck.sty
INPUT /usr/local/texlive/2021/texmf-dist/tex/latex/rerunfilecheck/rerunfilecheck.sty
INPUT /usr/local/texlive/2021/texmf-dist/tex/generic/uniquecounter/uniquecounter.sty
INPUT /usr/local/texlive/2021/texmf-dist/tex/generic/uniquecounter/uniquecounter.sty
INPUT /usr/local/texlive/2021/texmf-dist/tex/generic/uniquecounter/uniquecounter.sty
INPUT /usr/local/texlive/2021/texmf-dist/tex/latex/bookmark/bkm-pdftex.def
INPUT /usr/local/texlive/2021/texmf-dist/tex/latex/bookmark/bkm-pdftex.def
INPUT /usr/local/texlive/2021/texmf-dist/tex/latex/geometry/geometry.sty
INPUT /usr/local/texlive/2021/texmf-dist/tex/latex/geometry/geometry.sty
INPUT /usr/local/texlive/2021/texmf-dist/tex/latex/geometry/geometry.sty
INPUT /usr/local/texlive/2021/texmf-dist/tex/generic/iftex/ifvtex.sty
INPUT /usr/local/texlive/2021/texmf-dist/tex/generic/iftex/ifvtex.sty
INPUT /usr/local/texlive/2021/texmf-dist/tex/generic/iftex/ifvtex.sty
INPUT /usr/local/texlive/2021/texmf-dist/tex/latex/graphics/graphicx.sty
INPUT /usr/local/texlive/2021/texmf-dist/tex/latex/graphics/graphicx.sty
INPUT /usr/local/texlive/2021/texmf-dist/tex/latex/graphics/graphicx.sty
INPUT /usr/local/texlive/2021/texmf-dist/tex/latex/graphics/graphics.sty
INPUT /usr/local/texlive/2021/texmf-dist/tex/latex/graphics/graphics.sty
INPUT /usr/local/texlive/2021/texmf-dist/tex/latex/graphics/graphics.sty
INPUT /usr/local/texlive/2021/texmf-dist/tex/latex/graphics/trig.sty
INPUT /usr/local/texlive/2021/texmf-dist/tex/latex/graphics/trig.sty
INPUT /usr/local/texlive/2021/texmf-dist/tex/latex/graphics/trig.sty
INPUT /usr/local/texlive/2021/texmf-dist/tex/latex/graphics-cfg/graphics.cfg
INPUT /usr/local/texlive/2021/texmf-dist/tex/latex/graphics-cfg/graphics.cfg
INPUT /usr/local/texlive/2021/texmf-dist/tex/lualatex/selnolig/selnolig.sty
INPUT /usr/local/texlive/2021/texmf-dist/tex/lualatex/selnolig/selnolig.sty
INPUT /usr/local/texlive/2021/texmf-dist/tex/lualatex/selnolig/selnolig.sty
INPUT /usr/local/texlive/2021/texmf-dist/tex/generic/iftex/ifluatex.sty
INPUT /usr/local/texlive/2021/texmf-dist/tex/generic/iftex/ifluatex.sty
INPUT /usr/local/texlive/2021/texmf-dist/tex/generic/iftex/ifluatex.sty
INPUT /usr/local/texlive/2021/texmf-dist/tex/luatex/luatexbase/luatexbase.sty
INPUT /usr/local/texlive/2021/texmf-dist/tex/luatex/luatexbase/luatexbase.sty
INPUT /usr/local/texlive/2021/texmf-dist/tex/luatex/luatexbase/luatexbase.sty
INPUT /usr/local/texlive/2021/texmf-dist/tex/luatex/ctablestack/ctablestack.sty
INPUT /usr/local/texlive/2021/texmf-dist/tex/luatex/ctablestack/ctablestack.sty
INPUT /usr/local/texlive/2021/texmf-dist/tex/luatex/ctablestack/ctablestack.sty
INPUT /usr/local/texlive/2021/texmf-dist/tex/lualatex/selnolig/selnolig.lua
INPUT /usr/local/texlive/2021/texmf-dist/tex/latex/fancyhdr/fancyhdr.sty
INPUT /usr/local/texlive/2021/texmf-dist/tex/latex/fancyhdr/fancyhdr.sty
INPUT /usr/local/texlive/2021/texmf-dist/tex/latex/fancyhdr/fancyhdr.sty
INPUT ./SS21-MsAML__03-1__Perceptron_convergence.aux
INPUT ./SS21-MsAML__03-1__Perceptron_convergence.aux
OUTPUT SS21-MsAML__03-1__Perceptron_convergence.aux
INPUT /Users/desertfrog/Library/texlive/2021/texmf-var/luatex-cache/generic/fonts/otl/latinmodern-math.luc
INPUT /usr/local/texlive/2021/texmf-dist/tex/latex/lm/omllmm.fd
INPUT /usr/local/texlive/2021/texmf-dist/tex/latex/lm/omllmm.fd
INPUT /usr/local/texlive/2021/texmf-dist/fonts/tfm/public/lm/lmmi12.tfm
INPUT /usr/local/texlive/2021/texmf-dist/fonts/tfm/public/lm/lmmi8.tfm
INPUT /usr/local/texlive/2021/texmf-dist/fonts/tfm/public/lm/lmmi6.tfm
INPUT /usr/local/texlive/2021/texmf-dist/tex/latex/amsfonts/umsa.fd
INPUT /usr/local/texlive/2021/texmf-dist/tex/latex/amsfonts/umsa.fd
INPUT /usr/local/texlive/2021/texmf-dist/fonts/tfm/public/amsfonts/symbols/msam10.tfm
INPUT /usr/local/texlive/2021/texmf-dist/fonts/tfm/public/amsfonts/symbols/msam10.tfm
INPUT /usr/local/texlive/2021/texmf-dist/fonts/tfm/public/amsfonts/symbols/msam7.tfm
INPUT /usr/local/texlive/2021/texmf-dist/tex/latex/amsfonts/umsb.fd
INPUT /usr/local/texlive/2021/texmf-dist/tex/latex/amsfonts/umsb.fd
INPUT /usr/local/texlive/2021/texmf-dist/fonts/tfm/public/amsfonts/symbols/msbm10.tfm
INPUT /usr/local/texlive/2021/texmf-dist/fonts/tfm/public/amsfonts/symbols/msbm10.tfm
INPUT /usr/local/texlive/2021/texmf-dist/fonts/tfm/public/amsfonts/symbols/msbm7.tfm
INPUT /usr/local/texlive/2021/texmf-dist/tex/latex/microtype/mt-LatinModernRoman.cfg
INPUT /usr/local/texlive/2021/texmf-dist/tex/latex/microtype/mt-LatinModernRoman.cfg
INPUT /usr/local/texlive/2021/texmf-dist/tex/context/base/mkii/supp-pdf.mkii
INPUT /usr/local/texlive/2021/texmf-dist/tex/context/base/mkii/supp-pdf.mkii
INPUT /usr/local/texlive/2021/texmf-dist/tex/latex/epstopdf-pkg/epstopdf-base.sty
INPUT /usr/local/texlive/2021/texmf-dist/tex/latex/epstopdf-pkg/epstopdf-base.sty
INPUT /usr/local/texlive/2021/texmf-dist/tex/latex/epstopdf-pkg/epstopdf-base.sty
INPUT /usr/local/texlive/2021/texmf-dist/tex/latex/latexconfig/epstopdf-sys.cfg
INPUT /usr/local/texlive/2021/texmf-dist/tex/latex/latexconfig/epstopdf-sys.cfg
INPUT /usr/local/texlive/2021/texmf-dist/tex/latex/hyperref/nameref.sty
INPUT /usr/local/texlive/2021/texmf-dist/tex/latex/hyperref/nameref.sty
INPUT /usr/local/texlive/2021/texmf-dist/tex/latex/hyperref/nameref.sty
INPUT /usr/local/texlive/2021/texmf-dist/tex/latex/refcount/refcount.sty
INPUT /usr/local/texlive/2021/texmf-dist/tex/latex/refcount/refcount.sty
INPUT /usr/local/texlive/2021/texmf-dist/tex/latex/refcount/refcount.sty
INPUT /usr/local/texlive/2021/texmf-dist/tex/generic/gettitlestring/gettitlestring.sty
INPUT /usr/local/texlive/2021/texmf-dist/tex/generic/gettitlestring/gettitlestring.sty
INPUT /usr/local/texlive/2021/texmf-dist/tex/generic/gettitlestring/gettitlestring.sty
OUTPUT SS21-MsAML__03-1__Perceptron_convergence.pdf
INPUT /Users/desertfrog/Library/texlive/2021/texmf-var/luatex-cache/generic/fonts/otl/lmroman17-regular.luc
INPUT /Users/desertfrog/Library/texlive/2021/texmf-var/luatex-cache/generic/fonts/otl/lmroman8-regular.luc
INPUT /Users/desertfrog/Library/texlive/2021/texmf-var/luatex-cache/generic/fonts/otl/lmroman6-regular.luc
INPUT ./03/Absolute_separability.png
INPUT ./03/Absolute_separability.png
INPUT ./03/Absolute_separability.png
INPUT /usr/local/texlive/2021/texmf-var/fonts/map/pdftex/updmap/pdftex.map
INPUT /Users/desertfrog/Library/texlive/2021/texmf-var/luatex-cache/generic/fonts/otl/lmroman5-regular.luc
INPUT /usr/local/texlive/2021/texmf-dist/fonts/tfm/public/lm/lmmi6.tfm
INPUT /usr/local/texlive/2021/texmf-dist/fonts/tfm/public/lm/lmmi5.tfm
INPUT /usr/local/texlive/2021/texmf-dist/tex/latex/microtype/mt-msa.cfg
INPUT /usr/local/texlive/2021/texmf-dist/tex/latex/microtype/mt-msa.cfg
INPUT /usr/local/texlive/2021/texmf-dist/fonts/tfm/public/amsfonts/symbols/msam5.tfm
INPUT /usr/local/texlive/2021/texmf-dist/fonts/tfm/public/amsfonts/symbols/msam5.tfm
INPUT /usr/local/texlive/2021/texmf-dist/tex/latex/microtype/mt-msb.cfg
INPUT /usr/local/texlive/2021/texmf-dist/tex/latex/microtype/mt-msb.cfg
INPUT /usr/local/texlive/2021/texmf-dist/fonts/tfm/public/amsfonts/symbols/msbm5.tfm
INPUT /usr/local/texlive/2021/texmf-dist/fonts/tfm/public/amsfonts/symbols/msbm5.tfm
INPUT /usr/local/texlive/2021/texmf-dist/fonts/tfm/public/lm/lmmi5.tfm
INPUT /usr/local/texlive/2021/texmf-dist/fonts/tfm/public/amsfonts/symbols/msam5.tfm
INPUT /usr/local/texlive/2021/texmf-dist/fonts/tfm/public/amsfonts/symbols/msbm5.tfm
INPUT ./03/Perceptron_convergence.png
INPUT ./03/Perceptron_convergence.png
INPUT ./03/Perceptron_convergence.png
INPUT ./SS21-MsAML__03-1__Perceptron_convergence.aux
INPUT /usr/local/texlive/2021/texmf-dist/fonts/type1/public/amsfonts/symbols/msam10.pfb
