# Fdb version 3
["pdflatex"] 1621410246 "SS21-MsAML__01-2__Introduction_and_overview.tex" "SS21-MsAML__01-2__Introduction_and_overview.pdf" "SS21-MsAML__01-2__Introduction_and_overview" 1621410246
  "/Users/desertfrog/Library/texlive/2021/texmf-var/luatex-cache/generic/fonts/otl/latinmodern-math.luc" 1618139988 544970 565f693395bed1f9298e0313341c9e18 ""
  "/Users/desertfrog/Library/texlive/2021/texmf-var/luatex-cache/generic/fonts/otl/lmmono12-regular.luc" 1618139990 77605 2a4bc4b60caf93d7b8beee8c3ba67a09 ""
  "/Users/desertfrog/Library/texlive/2021/texmf-var/luatex-cache/generic/fonts/otl/lmroman10-bolditalic.luc" 1618139989 132328 c5368c4de206bde9a843ab77a0ab76be ""
  "/Users/desertfrog/Library/texlive/2021/texmf-var/luatex-cache/generic/fonts/otl/lmroman12-bold.luc" 1618139987 124128 826eace173a4c277f00a3961e5bd55a0 ""
  "/Users/desertfrog/Library/texlive/2021/texmf-var/luatex-cache/generic/fonts/otl/lmroman12-italic.luc" 1618139989 131060 a5a3955be2833e2333d3771dba6a252f ""
  "/Users/desertfrog/Library/texlive/2021/texmf-var/luatex-cache/generic/fonts/otl/lmroman12-regular.luc" 1618139987 123499 243bfe951f41de9e33b640d9f8cc3644 ""
  "/Users/desertfrog/Library/texlive/2021/texmf-var/luatex-cache/generic/fonts/otl/lmroman17-regular.luc" 1618139989 124746 a50786a08088cadeb703ae50b953340c ""
  "/Users/desertfrog/Library/texlive/2021/texmf-var/luatex-cache/generic/fonts/otl/lmroman6-regular.luc" 1618139990 124341 d1c97183691d75a64526f64f850e3016 ""
  "/Users/desertfrog/Library/texlive/2021/texmf-var/luatex-cache/generic/fonts/otl/lmroman8-italic.luc" 1618139989 131379 4101be033f70697661eacbf6e700ec09 ""
  "/Users/desertfrog/Library/texlive/2021/texmf-var/luatex-cache/generic/fonts/otl/lmroman8-regular.luc" 1618139989 123967 ede0df35ca91846f840f04b02f519595 ""
  "/Users/desertfrog/Library/texlive/2021/texmf-var/luatex-cache/generic/names/luaotfload-names.luc" 1618139987 1658834 82d7b5423d77492660c6d619f74453cd ""
  "/usr/local/texlive/2021/texmf-dist/fonts/opentype/public/lm-math/latinmodern-math.otf" 1429396570 733736 0b8cd5044567d896491fd777c12d5cda ""
  "/usr/local/texlive/2021/texmf-dist/fonts/opentype/public/lm/lmmono12-regular.otf" 1255129361 63012 5db69ad3c177ae338e5504d80d9e9eb6 ""
  "/usr/local/texlive/2021/texmf-dist/fonts/opentype/public/lm/lmroman10-bolditalic.otf" 1255129361 118204 71070e299cf063366237473420b0fea8 ""
  "/usr/local/texlive/2021/texmf-dist/fonts/opentype/public/lm/lmroman12-bold.otf" 1255129361 110496 b9c8767d4cc3bf3f4b21f676bf89aa78 ""
  "/usr/local/texlive/2021/texmf-dist/fonts/opentype/public/lm/lmroman12-italic.otf" 1255129361 117732 558aeb4ada25b652cc2e9bcf0771e962 ""
  "/usr/local/texlive/2021/texmf-dist/fonts/opentype/public/lm/lmroman12-regular.otf" 1255129361 110400 d844cffffa1af59f9d2bb1bfdb6f1a2c ""
  "/usr/local/texlive/2021/texmf-dist/fonts/opentype/public/lm/lmroman8-italic.otf" 1255129361 117248 5a8fd8a072f6ecf1b09ddab198b66a1d ""
  "/usr/local/texlive/2021/texmf-dist/fonts/opentype/public/lm/lmroman8-regular.otf" 1255129361 111948 cee9e390fd6d23cfb4d6871ba2a9ee5b ""
  "/usr/local/texlive/2021/texmf-dist/fonts/tfm/public/amsfonts/symbols/msam10.tfm" 1246382020 916 f87d7c45f9c908e672703b83b72241a3 ""
  "/usr/local/texlive/2021/texmf-dist/fonts/tfm/public/amsfonts/symbols/msam7.tfm" 1246382020 928 2dc8d444221b7a635bb58038579b861a ""
  "/usr/local/texlive/2021/texmf-dist/fonts/tfm/public/amsfonts/symbols/msbm10.tfm" 1246382020 908 2921f8a10601f252058503cc6570e581 ""
  "/usr/local/texlive/2021/texmf-dist/fonts/tfm/public/amsfonts/symbols/msbm7.tfm" 1246382020 940 228d6584342e91276bf566bcf9716b83 ""
  "/usr/local/texlive/2021/texmf-dist/fonts/tfm/public/lm/lmmi12.tfm" 1148093231 1524 753b192b18f2991794f9d41a8228510b ""
  "/usr/local/texlive/2021/texmf-dist/fonts/tfm/public/lm/lmmi6.tfm" 1148093231 1512 94a3fd88c6f27dbd9ecb46987e297a4e ""
  "/usr/local/texlive/2021/texmf-dist/fonts/tfm/public/lm/lmmi8.tfm" 1148093231 1520 a3fe5596932db2db2cbda300920dd4e9 ""
  "/usr/local/texlive/2021/texmf-dist/tex/context/base/mkii/supp-pdf.mkii" 1461363279 71627 94eb9990bed73c364d7f53f960cc8c5b ""
  "/usr/local/texlive/2021/texmf-dist/tex/generic/bigintcalc/bigintcalc.sty" 1576625341 40635 c40361e206be584d448876bba8a64a3b ""
  "/usr/local/texlive/2021/texmf-dist/tex/generic/bitset/bitset.sty" 1576016050 33961 6b5c75130e435b2bfdb9f480a09a39f9 ""
  "/usr/local/texlive/2021/texmf-dist/tex/generic/etexcmds/etexcmds.sty" 1576625273 7734 b98cbb34c81f667027c1e3ebdbfce34b ""
  "/usr/local/texlive/2021/texmf-dist/tex/generic/gettitlestring/gettitlestring.sty" 1576625223 8371 9d55b8bd010bc717624922fb3477d92e ""
  "/usr/local/texlive/2021/texmf-dist/tex/generic/iftex/ifluatex.sty" 1572645307 492 1994775aa15b0d1289725a0b1bbc2d4c ""
  "/usr/local/texlive/2021/texmf-dist/tex/generic/iftex/iftex.sty" 1583617216 6501 4011d89d9621e0b0901138815ba5ff29 ""
  "/usr/local/texlive/2021/texmf-dist/tex/generic/iftex/ifvtex.sty" 1572645307 1057 525c2192b5febbd8c1f662c9468335bb ""
  "/usr/local/texlive/2021/texmf-dist/tex/generic/infwarerr/infwarerr.sty" 1575499628 8356 7bbb2c2373aa810be568c29e333da8ed ""
  "/usr/local/texlive/2021/texmf-dist/tex/generic/intcalc/intcalc.sty" 1576625065 31769 002a487f55041f8e805cfbf6385ffd97 ""
  "/usr/local/texlive/2021/texmf-dist/tex/generic/kvdefinekeys/kvdefinekeys.sty" 1576878844 5412 d5a2436094cd7be85769db90f29250a6 ""
  "/usr/local/texlive/2021/texmf-dist/tex/generic/kvsetkeys/kvsetkeys.sty" 1576624944 13807 952b0226d4efca026f0e19dd266dcc22 ""
  "/usr/local/texlive/2021/texmf-dist/tex/generic/ltxcmds/ltxcmds.sty" 1600895880 17859 4409f8f50cd365c68e684407e5350b1b ""
  "/usr/local/texlive/2021/texmf-dist/tex/generic/pdfescape/pdfescape.sty" 1576015897 19007 15924f7228aca6c6d184b115f4baa231 ""
  "/usr/local/texlive/2021/texmf-dist/tex/generic/pdftexcmds/pdftexcmds.lua" 1593380077 9447 5e9f52f1871707a5d27dea360afbe4cb ""
  "/usr/local/texlive/2021/texmf-dist/tex/generic/pdftexcmds/pdftexcmds.sty" 1593379760 20089 80423eac55aa175305d35b49e04fe23b ""
  "/usr/local/texlive/2021/texmf-dist/tex/generic/stringenc/stringenc.sty" 1575152242 21514 b7557edcee22835ef6b03ede1802dad4 ""
  "/usr/local/texlive/2021/texmf-dist/tex/generic/unicode-data/CaseFolding.txt" 1584044743 82810 5f9103a43f1de6931ccd535dc2d04777 ""
  "/usr/local/texlive/2021/texmf-dist/tex/generic/unicode-data/PropList.txt" 1584044743 126063 09a6b8a9bf45d76e1051f087476c584a ""
  "/usr/local/texlive/2021/texmf-dist/tex/generic/unicode-data/ScriptExtensions.txt" 1584044743 21036 0498414f4b3ea003decdfbdc05d5eee4 ""
  "/usr/local/texlive/2021/texmf-dist/tex/generic/unicode-data/Scripts.txt" 1584044743 175811 5f82197ad754fd20cee117a97732d384 ""
  "/usr/local/texlive/2021/texmf-dist/tex/generic/unicode-data/SpecialCasing.txt" 1584044743 16830 681d4e1ebc39c3362fbd6c293070a8ea ""
  "/usr/local/texlive/2021/texmf-dist/tex/generic/unicode-data/UnicodeData.txt" 1584044743 1851767 85879f1976cc8eb739ee5585a93938e2 ""
  "/usr/local/texlive/2021/texmf-dist/tex/generic/unicode-data/WordBreakProperty.txt" 1603745856 103240 40f00b28bda4ea42f0d09ea1cf5a646a ""
  "/usr/local/texlive/2021/texmf-dist/tex/generic/uniquecounter/uniquecounter.sty" 1576624663 7008 f92eaa0a3872ed622bbf538217cd2ab7 ""
  "/usr/local/texlive/2021/texmf-dist/tex/latex/amsfonts/amsfonts.sty" 1359763108 5949 3f3fd50a8cc94c3d4cbf4fc66cd3df1c ""
  "/usr/local/texlive/2021/texmf-dist/tex/latex/amsfonts/amssymb.sty" 1359763108 13829 94730e64147574077f8ecfea9bb69af4 ""
  "/usr/local/texlive/2021/texmf-dist/tex/latex/amsfonts/umsa.fd" 1359763108 961 6518c6525a34feb5e8250ffa91731cff ""
  "/usr/local/texlive/2021/texmf-dist/tex/latex/amsfonts/umsb.fd" 1359763108 961 d02606146ba5601b5645f987c92e6193 ""
  "/usr/local/texlive/2021/texmf-dist/tex/latex/amsmath/amsbsy.sty" 1523134290 2211 ca7ce284ab93c8eecdc6029dc5ccbd73 ""
  "/usr/local/texlive/2021/texmf-dist/tex/latex/amsmath/amsgen.sty" 1523134290 4161 7f6eb9092061a11f87d08ed13515b48d ""
  "/usr/local/texlive/2021/texmf-dist/tex/latex/amsmath/amsmath.sty" 1601675358 87353 2c21ff5f2e32e1bf714e600924d810db ""
  "/usr/local/texlive/2021/texmf-dist/tex/latex/amsmath/amsopn.sty" 1523134290 4116 32e6abd27229755a83a8b7f18e583890 ""
  "/usr/local/texlive/2021/texmf-dist/tex/latex/amsmath/amstext.sty" 1523134290 2432 8ff93b1137020e8f21930562a874ae66 ""
  "/usr/local/texlive/2021/texmf-dist/tex/latex/auxhook/auxhook.sty" 1576625391 3935 57aa3c3e203a5c2effb4d2bd2efbc323 ""
  "/usr/local/texlive/2021/texmf-dist/tex/latex/base/article.cls" 1601675358 20145 aad8c3dd3bc36e260347b84002182bc2 ""
  "/usr/local/texlive/2021/texmf-dist/tex/latex/base/atbegshi-ltx.sty" 1609451599 2973 00085839f5881178c538db5970d3c38e ""
  "/usr/local/texlive/2021/texmf-dist/tex/latex/base/atveryend-ltx.sty" 1610149055 2596 b3a02e33035865e9f0457e064d436fb8 ""
  "/usr/local/texlive/2021/texmf-dist/tex/latex/base/fix-cm.sty" 1580683321 14742 0d173bd349a3411c545b594a97fb0700 ""
  "/usr/local/texlive/2021/texmf-dist/tex/latex/base/fontenc.sty" 1601675358 4947 8cb7717f0cc771eca0fda15160c7fee9 ""
  "/usr/local/texlive/2021/texmf-dist/tex/latex/base/ltluatex.lua" 1601675358 19071 5eca6644e86be740ddc21c18c9b79330 ""
  "/usr/local/texlive/2021/texmf-dist/tex/latex/base/size12.clo" 1601675358 8450 6fd3588c0e9d06f6f56c6cf4f7246466 ""
  "/usr/local/texlive/2021/texmf-dist/tex/latex/base/textcomp.sty" 1581112666 2821 2c0928feafd5527387e29a1af774d030 ""
  "/usr/local/texlive/2021/texmf-dist/tex/latex/base/ts1enc.def" 1580683321 7764 996679026d0382957cdad45a528f4fa8 ""
  "/usr/local/texlive/2021/texmf-dist/tex/latex/bookmark/bkm-pdftex.def" 1604871679 8609 8ac7db65d9617618cf703bd16c1bd0b8 ""
  "/usr/local/texlive/2021/texmf-dist/tex/latex/bookmark/bookmark.sty" 1604871679 18237 5cbdfe9ef383a557f780a0a1f45cdb1c ""
  "/usr/local/texlive/2021/texmf-dist/tex/latex/booktabs/booktabs.sty" 1579038678 6078 f1cb470c9199e7110a27851508ed7a5c ""
  "/usr/local/texlive/2021/texmf-dist/tex/latex/epstopdf-pkg/epstopdf-base.sty" 1579991033 13886 d1306dcf79a944f6988e688c1785f9ce ""
  "/usr/local/texlive/2021/texmf-dist/tex/latex/etoolbox/etoolbox.sty" 1601931149 46845 3b58f70c6e861a13d927bff09d35ecbc ""
  "/usr/local/texlive/2021/texmf-dist/tex/latex/fancyhdr/fancyhdr.sty" 1612734021 17086 7ed8cbc4d361ec87392817e0dd4f65ec ""
  "/usr/local/texlive/2021/texmf-dist/tex/latex/fontspec/fontspec-luatex.sty" 1582325645 151809 9b29a813bdecad31db825cd830187121 ""
  "/usr/local/texlive/2021/texmf-dist/tex/latex/fontspec/fontspec.cfg" 1532898934 549 c4adac819276241fea8eb79c5ab7b99e ""
  "/usr/local/texlive/2021/texmf-dist/tex/latex/fontspec/fontspec.lua" 1582325645 3021 d32bd2298bedcca160fe737883f3615e ""
  "/usr/local/texlive/2021/texmf-dist/tex/latex/fontspec/fontspec.sty" 1582325645 1655 a1ec6f2670a260de25415d37e9c60e97 ""
  "/usr/local/texlive/2021/texmf-dist/tex/latex/footnotehyper/footnotehyper.sty" 1612474067 11189 99a148ac1a0d801bd818afe7c7705a30 ""
  "/usr/local/texlive/2021/texmf-dist/tex/latex/geometry/geometry.sty" 1578002852 41601 9cf6c5257b1bc7af01a58859749dd37a ""
  "/usr/local/texlive/2021/texmf-dist/tex/latex/graphics-cfg/color.cfg" 1459978653 1213 620bba36b25224fa9b7e1ccb4ecb76fd ""
  "/usr/local/texlive/2021/texmf-dist/tex/latex/graphics-cfg/graphics.cfg" 1465944070 1224 978390e9c2234eab29404bc21b268d1e ""
  "/usr/local/texlive/2021/texmf-dist/tex/latex/graphics-def/luatex.def" 1601931164 19052 d9eaaf91d2a0b7bc9d7f373ebd8346f3 ""
  "/usr/local/texlive/2021/texmf-dist/tex/latex/graphics/dvipsnam.def" 1580683321 4944 1ddc361527c0bcf3d7b9f9b0c3c28113 ""
  "/usr/local/texlive/2021/texmf-dist/tex/latex/graphics/graphics.sty" 1601675358 18272 a8c6a275b34ab6717ceeb8fa04b104e2 ""
  "/usr/local/texlive/2021/texmf-dist/tex/latex/graphics/graphicx.sty" 1601675358 7919 20fdfdd783821971c55bc8ee918cbe63 ""
  "/usr/local/texlive/2021/texmf-dist/tex/latex/graphics/keyval.sty" 1580683321 2590 e3b24ff953e5b58d924f163d25380312 ""
  "/usr/local/texlive/2021/texmf-dist/tex/latex/graphics/trig.sty" 1580683321 3976 d7fa7d81d2870d509d25b17d0245e735 ""
  "/usr/local/texlive/2021/texmf-dist/tex/latex/hycolor/hycolor.sty" 1580250785 17914 4c28a13fc3d975e6e81c9bea1d697276 ""
  "/usr/local/texlive/2021/texmf-dist/tex/latex/hyperref/hluatex.def" 1614638310 50811 c3fdee4a073620a647093b5fb5d37547 ""
  "/usr/local/texlive/2021/texmf-dist/tex/latex/hyperref/hyperref-langpatches.def" 1614638310 1777 31eee4f3f5c138e44a4e16abfcaefa41 ""
  "/usr/local/texlive/2021/texmf-dist/tex/latex/hyperref/hyperref.sty" 1614638310 230839 177eac084bda18ae827a77792a17292e ""
  "/usr/local/texlive/2021/texmf-dist/tex/latex/hyperref/nameref.sty" 1612734870 13242 133e617c5eebffdd05e421624022b267 ""
  "/usr/local/texlive/2021/texmf-dist/tex/latex/hyperref/pd1enc.def" 1614638310 14132 3a8b7a8250bdb5871e322188be7c9ff6 ""
  "/usr/local/texlive/2021/texmf-dist/tex/latex/hyperref/puenc.def" 1614638310 117004 7c05c6dde5b2b6a14f97dd4137739212 ""
  "/usr/local/texlive/2021/texmf-dist/tex/latex/kvoptions/kvoptions.sty" 1602274869 22521 d2fceb764a442a2001d257ef11db7618 ""
  "/usr/local/texlive/2021/texmf-dist/tex/latex/l3backend/l3backend-luatex.def" 1616101731 27535 5374a97a736f2399b505712f471ea725 ""
  "/usr/local/texlive/2021/texmf-dist/tex/latex/l3kernel/expl3.lua" 1612304173 11443 3672c95ea895d2ba29caa9da5ca5973a ""
  "/usr/local/texlive/2021/texmf-dist/tex/latex/l3kernel/expl3.sty" 1613686676 6208 7497703c7e95fb22a69d3ed6f9024046 ""
  "/usr/local/texlive/2021/texmf-dist/tex/latex/l3packages/l3keys2e/l3keys2e.sty" 1615590017 4614 3d280c6851211796f3b4f2310e7af080 ""
  "/usr/local/texlive/2021/texmf-dist/tex/latex/l3packages/xparse/xparse-2020-10-01.sty" 1612304173 6195 8bc989fdf3bb45de5ab646a95bf3352b ""
  "/usr/local/texlive/2021/texmf-dist/tex/latex/l3packages/xparse/xparse-generic.tex" 1612304173 80141 dd4859747b9d959c1acfee24fd462951 ""
  "/usr/local/texlive/2021/texmf-dist/tex/latex/l3packages/xparse/xparse.sty" 1615590017 6289 682e18a28ebd34b27d72772c8a4cedcb ""
  "/usr/local/texlive/2021/texmf-dist/tex/latex/latexconfig/epstopdf-sys.cfg" 1279039959 678 4792914a8f45be57bb98413425e4c7af ""
  "/usr/local/texlive/2021/texmf-dist/tex/latex/latexconfig/lualatexquotejobname.lua" 1308175312 1031 977f79ff10b802fc398926378bec58e9 ""
  "/usr/local/texlive/2021/texmf-dist/tex/latex/letltxmacro/letltxmacro.sty" 1575499565 5766 13a9e8766c47f30327caf893ece86ac8 ""
  "/usr/local/texlive/2021/texmf-dist/tex/latex/lm/lmodern.sty" 1616454256 1608 b00724785a9e9c599e5181bb8729160b ""
  "/usr/local/texlive/2021/texmf-dist/tex/latex/lm/omllmm.fd" 1616454256 890 57f5adccd504fb5c98bdf99ed7e7f195 ""
  "/usr/local/texlive/2021/texmf-dist/tex/latex/microtype/microtype-luatex.def" 1615845855 40246 7fad4c2ced4920aab995c0d1a72b12aa ""
  "/usr/local/texlive/2021/texmf-dist/tex/latex/microtype/microtype.cfg" 1615845855 25351 a8ea42615c1a2e238f5239107f136d2e ""
  "/usr/local/texlive/2021/texmf-dist/tex/latex/microtype/microtype.lua" 1615845855 5588 ccdc71c988474cf27edce3fd29d20b74 ""
  "/usr/local/texlive/2021/texmf-dist/tex/latex/microtype/microtype.sty" 1615845855 72985 34bc4da4b01d522411d81e8ba52c722c ""
  "/usr/local/texlive/2021/texmf-dist/tex/latex/microtype/mt-LatinModernRoman.cfg" 1614119666 9911 420190ecdc06520d5e8a707c48254b12 ""
  "/usr/local/texlive/2021/texmf-dist/tex/latex/parskip/parskip.sty" 1615762720 4288 94714aa7f535440f33181fec52a31963 ""
  "/usr/local/texlive/2021/texmf-dist/tex/latex/refcount/refcount.sty" 1576624809 9878 9e94e8fa600d95f9c7731bb21dfb67a4 ""
  "/usr/local/texlive/2021/texmf-dist/tex/latex/rerunfilecheck/rerunfilecheck.sty" 1575674187 9715 b051d5b493d9fe5f4bc251462d039e5f ""
  "/usr/local/texlive/2021/texmf-dist/tex/latex/tools/array.sty" 1601675358 12675 9a7bbb9e485cd81cdcc1d56212b088ff ""
  "/usr/local/texlive/2021/texmf-dist/tex/latex/tools/calc.sty" 1580683321 10216 5efd55f2010055e7b7875afd6a75be82 ""
  "/usr/local/texlive/2021/texmf-dist/tex/latex/tools/longtable.sty" 1580683321 12133 b1e3e65b69714dbfcc5e6c0b19d66b50 ""
  "/usr/local/texlive/2021/texmf-dist/tex/latex/unicode-math/unicode-math-luatex.sty" 1580422878 135753 2bb19d77b4dadf52bda2f85c0f8b9e38 ""
  "/usr/local/texlive/2021/texmf-dist/tex/latex/unicode-math/unicode-math-table.tex" 1550269384 241265 52e61157376139e230f2a9ef4be9503f ""
  "/usr/local/texlive/2021/texmf-dist/tex/latex/unicode-math/unicode-math.sty" 1580422878 1474 aba4cc64ac109084e74e3e749fbcd54e ""
  "/usr/local/texlive/2021/texmf-dist/tex/latex/upquote/upquote.sty" 1334873510 1048 517e01cde97c1c0baf72e69d43aa5a2e ""
  "/usr/local/texlive/2021/texmf-dist/tex/latex/url/url.sty" 1388531844 12796 8edb7d69a20b857904dd0ea757c14ec9 ""
  "/usr/local/texlive/2021/texmf-dist/tex/latex/xcolor/svgnam.def" 1463002160 4620 ef4794ae13f75d0c199ba494bc41ff4b ""
  "/usr/local/texlive/2021/texmf-dist/tex/latex/xcolor/x11nam.def" 1463002160 9040 8a9e316ccf1f74e192adb7eb7f3d0f07 ""
  "/usr/local/texlive/2021/texmf-dist/tex/latex/xcolor/xcolor.sty" 1463002160 55589 34128738f682d033422ca125f82e5d62 ""
  "/usr/local/texlive/2021/texmf-dist/tex/latex/xurl/xurl.sty" 1609365151 4662 bd4dddc91c615ba08c4fa6618ec20bef ""
  "/usr/local/texlive/2021/texmf-dist/tex/lualatex/lualatex-math/lualatex-math.lua" 1601846097 1313 28342dc97f216f8150c33beea0e9a41c ""
  "/usr/local/texlive/2021/texmf-dist/tex/lualatex/lualatex-math/lualatex-math.sty" 1601846097 7875 b41b8a7eb9f0f95b146e05415cae7c14 ""
  "/usr/local/texlive/2021/texmf-dist/tex/lualatex/selnolig/selnolig.lua" 1445900117 5854 841072bc372af939a2f45a8331cb6335 ""
  "/usr/local/texlive/2021/texmf-dist/tex/lualatex/selnolig/selnolig.sty" 1445900117 7675 b832a0860abc29dc4a6586c642d179ff ""
  "/usr/local/texlive/2021/texmf-dist/tex/luatex/ctablestack/ctablestack.sty" 1443736950 1510 9c109bd1f6a9fc69b2f6096ee416d958 ""
  "/usr/local/texlive/2021/texmf-dist/tex/luatex/lualibs/lualibs-basic-merged.lua" 1609451617 131468 fd1313508308a0eb9829063570435aca ""
  "/usr/local/texlive/2021/texmf-dist/tex/luatex/lualibs/lualibs-basic.lua" 1609451617 2717 538b28c781d9675abf8ea106134f6a32 ""
  "/usr/local/texlive/2021/texmf-dist/tex/luatex/lualibs/lualibs-compat.lua" 1367794330 603 398583cb619d20952d67edcedae41608 ""
  "/usr/local/texlive/2021/texmf-dist/tex/luatex/lualibs/lualibs-extended-merged.lua" 1609451617 110513 18927093f376db6f759633b1df9ca47d ""
  "/usr/local/texlive/2021/texmf-dist/tex/luatex/lualibs/lualibs-extended.lua" 1609451617 4858 1d0213aca5cd664173ccbc672f7cfe2f ""
  "/usr/local/texlive/2021/texmf-dist/tex/luatex/lualibs/lualibs.lua" 1609451617 3779 b5f9573f0df8b6653bae489078a3417b ""
  "/usr/local/texlive/2021/texmf-dist/tex/luatex/luaotfload/fontloader-2021-01-07.lua" 1610835910 863258 ef54bfa34416e2c85fa48d3195c67fd2 ""
  "/usr/local/texlive/2021/texmf-dist/tex/luatex/luaotfload/fontloader-basics-gen.lua" 1599167189 12745 4bc43036e9796fccb0b8869f4b05bf2e ""
  "/usr/local/texlive/2021/texmf-dist/tex/luatex/luaotfload/luaotfload-auxiliary.lua" 1610835910 32597 8e427ec79ced91d9fc6fbcece159d042 ""
  "/usr/local/texlive/2021/texmf-dist/tex/luatex/luaotfload/luaotfload-case.lua" 1609451516 6809 6c20d5dc2b2b4227f873e7df0fd25316 ""
  "/usr/local/texlive/2021/texmf-dist/tex/luatex/luaotfload/luaotfload-colors.lua" 1610835910 15954 7c201914c79310d9e79e75dfc7ee982b ""
  "/usr/local/texlive/2021/texmf-dist/tex/luatex/luaotfload/luaotfload-configuration.lua" 1610835910 31151 589ca99522479a0929d6824bafa36f63 ""
  "/usr/local/texlive/2021/texmf-dist/tex/luatex/luaotfload/luaotfload-database.lua" 1610835910 134863 4a0f9f3b500df0d8a8234a0954065e46 ""
  "/usr/local/texlive/2021/texmf-dist/tex/luatex/luaotfload/luaotfload-embolden.lua" 1610835910 1004 5506419bc583d450f252542b1105d6ce ""
  "/usr/local/texlive/2021/texmf-dist/tex/luatex/luaotfload/luaotfload-fallback.lua" 1610835910 4047 a3c8c048b14a304d3352871014ef1343 ""
  "/usr/local/texlive/2021/texmf-dist/tex/luatex/luaotfload/luaotfload-features.lua" 1610835910 29002 33fdd06674606d043599dc4ea9b2a56b ""
  "/usr/local/texlive/2021/texmf-dist/tex/luatex/luaotfload/luaotfload-harf-define.lua" 1610835910 13468 1c9a663bb7bfa650b93dcf01d5450675 ""
  "/usr/local/texlive/2021/texmf-dist/tex/luatex/luaotfload/luaotfload-harf-plug.lua" 1610835910 41599 8fdc1ba513a6026546b883259e559c7e ""
  "/usr/local/texlive/2021/texmf-dist/tex/luatex/luaotfload/luaotfload-init.lua" 1610835910 19547 e3b832a9efc91c977044383640835069 ""
  "/usr/local/texlive/2021/texmf-dist/tex/luatex/luaotfload/luaotfload-letterspace.lua" 1610835910 18645 1a518a55f6663ce13866416a5b94d6a4 ""
  "/usr/local/texlive/2021/texmf-dist/tex/luatex/luaotfload/luaotfload-loaders.lua" 1610835910 8840 d169564522ac7194e7410d8263cd1b31 ""
  "/usr/local/texlive/2021/texmf-dist/tex/luatex/luaotfload/luaotfload-log.lua" 1610835910 11323 809e4afac4e070b619512461a6fedd90 ""
  "/usr/local/texlive/2021/texmf-dist/tex/luatex/luaotfload/luaotfload-main.lua" 1609451516 275 b19c9cc34cf1d676c39f872cfb41aef6 ""
  "/usr/local/texlive/2021/texmf-dist/tex/luatex/luaotfload/luaotfload-multiscript.lua" 1610835910 15068 db7b6c7791b4b909d12234620ff7973d ""
  "/usr/local/texlive/2021/texmf-dist/tex/luatex/luaotfload/luaotfload-notdef.lua" 1610835910 12224 26fed1a76150718e05c8c56b1983ebdd ""
  "/usr/local/texlive/2021/texmf-dist/tex/luatex/luaotfload/luaotfload-parsers.lua" 1610835910 30999 dba42cb2f6bbfa13b9a56d0e4a2b2f44 ""
  "/usr/local/texlive/2021/texmf-dist/tex/luatex/luaotfload/luaotfload-resolvers.lua" 1610835910 10984 b387d9435738f7ce8cf1e6af86b565a6 ""
  "/usr/local/texlive/2021/texmf-dist/tex/luatex/luaotfload/luaotfload-scripts.lua" 1610835910 2506 2b924be852e17191e651faf5a2097e12 ""
  "/usr/local/texlive/2021/texmf-dist/tex/luatex/luaotfload/luaotfload-status.lua" 1610835910 6317 de8b416497205d269b31674daef0f48b ""
  "/usr/local/texlive/2021/texmf-dist/tex/luatex/luaotfload/luaotfload-suppress.lua" 1610835910 2582 b07873bfeb7764f9b5b440cd6b170f63 ""
  "/usr/local/texlive/2021/texmf-dist/tex/luatex/luaotfload/luaotfload-szss.lua" 1610835910 6259 2413a2be98181fe77f7e110369194769 ""
  "/usr/local/texlive/2021/texmf-dist/tex/luatex/luaotfload/luaotfload-tounicode.lua" 1610835910 7528 e07e112222777070250fbc980b2e6b85 ""
  "/usr/local/texlive/2021/texmf-dist/tex/luatex/luaotfload/luaotfload-unicode.lua" 1610835910 7589 1d7fd6ab63640cb6c8e2091ac5a57915 ""
  "/usr/local/texlive/2021/texmf-dist/tex/luatex/luaotfload/luaotfload.lua" 1610835910 13788 c3df7754a82557bc3e50d0714ad8a67c ""
  "/usr/local/texlive/2021/texmf-dist/tex/luatex/luatexbase/luatexbase.sty" 1443997592 10170 b1a2248f43cab899e3fe36f676176865 ""
  "/usr/local/texlive/2021/texmf-var/fonts/map/pdftex/updmap/pdftex.map" 1616695603 5169178 a2ce6e2d73f603b690db6777d06dbccb ""
  "/usr/local/texlive/2021/texmf-var/web2c/luahbtex/lualatex.fmt" 1617513903 3313483 7b45b219030d2317aeb4bccdbb36bfc3 ""
  "01/reinforcement_learning.jpg" 1614468241 112559 e8e7113cbe211db81ea9b8e3457ed3a7 ""
  "01/supervised_learning.jpg" 1614468241 308249 caf8a297866982a454d161863dceb4a6 ""
  "SS21-MsAML__01-2__Introduction_and_overview.aux" 1621410246 8 a94a2480d3289e625eea47cd1b285758 "pdflatex"
  "SS21-MsAML__01-2__Introduction_and_overview.tex" 1620384126 36970 751d219f735383fac71ff915bdb9f288 ""
  "https://upload.wikimedia.org/wikipedia/commons/d/d8/EM-Gaussian-data.svg" 0 -1 0 ""
  (generated)
  "SS21-MsAML__01-2__Introduction_and_overview.log"
  "SS21-MsAML__01-2__Introduction_and_overview.pdf"
  "SS21-MsAML__01-2__Introduction_and_overview.aux"
