\relax 
\providecommand\hyper@newdestlabel[2]{}
\providecommand\HyperFirstAtBeginDocument{\AtBeginDocument}
\HyperFirstAtBeginDocument{\ifx\hyper@anchor\@undefined
\global\let\oldcontentsline\contentsline
\gdef\contentsline#1#2#3#4{\oldcontentsline{#1}{#2}{#3}}
\global\let\oldnewlabel\newlabel
\gdef\newlabel#1#2{\newlabelxx{#1}#2}
\gdef\newlabelxx#1#2#3#4#5#6{\oldnewlabel{#1}{{#2}{#3}}}
\AtEndDocument{\ifx\hyper@anchor\@undefined
\let\contentsline\oldcontentsline
\let\newlabel\oldnewlabel
\fi}
\fi}
\global\let\hyper@last\relax 
\gdef\HyperFirstAtBeginDocument#1{#1}
\providecommand\HyField@AuxAddToFields[1]{}
\providecommand\HyField@AuxAddToCoFields[2]{}
\providecommand\BKM@entry[2]{}
\BKM@entry{id=1,dest={73656374696F6E2A2E31},srcline={79},srcfile={2E2F53533231302D4D73414D4C5F5F30342D325F5F4E6F5F667265655F6C756E63685F7468656F72656D732E746578}}{5C3337365C3337375C3030304D5C303030735C303030415C3030304D5C3030304C5C3030302D5C303030305C303030345C3030302D5C303030325C3030305C3034305C3030305B5C303030505C303030445C303030465C3030305D}
\BKM@entry{id=2,dest={73656374696F6E2A2E32},srcline={91},srcfile={2E2F53533231302D4D73414D4C5F5F30342D325F5F4E6F5F667265655F6C756E63685F7468656F72656D732E746578}}{5C3337365C3337375C3030304E5C3030306F5C3030305C3034305C303030665C303030725C303030655C303030655C3030305C3034305C3030306C5C303030755C3030306E5C303030635C303030685C3030305C3034305C303030745C303030685C303030655C3030306F5C303030725C303030655C3030306D5C30303073}
\@writefile{toc}{\contentsline {section}{MsAML-04-2 {[}\href  {SS210-MsAML__04-2__No_free_lunch_theorems.pdf}{PDF}{]}}{1}{section*.1}\protected@file@percent }
\newlabel{msaml-04-2-pdf}{{}{1}{\texorpdfstring {MsAML-04-2 {[}\href {SS210-MsAML__04-2__No_free_lunch_theorems.pdf}{PDF}{]}}{MsAML-04-2 {[}PDF{]}}}{section*.1}{}}
\@writefile{toc}{\contentsline {subsection}{No free lunch theorems}{1}{section*.2}\protected@file@percent }
\newlabel{no-free-lunch-theorems}{{}{1}{No free lunch theorems}{section*.2}{}}
\newlabel{no-free-lunch-theorem}{{}{1}{No free lunch theorems}{equation.0.1}{}}
\newlabel{eq_term2}{{{T2}}{2}{No free lunch theorems}{AMS.4}{}}
\gdef \@abspage@last{4}
