\relax 
\providecommand\hyper@newdestlabel[2]{}
\providecommand\HyperFirstAtBeginDocument{\AtBeginDocument}
\HyperFirstAtBeginDocument{\ifx\hyper@anchor\@undefined
\global\let\oldcontentsline\contentsline
\gdef\contentsline#1#2#3#4{\oldcontentsline{#1}{#2}{#3}}
\global\let\oldnewlabel\newlabel
\gdef\newlabel#1#2{\newlabelxx{#1}#2}
\gdef\newlabelxx#1#2#3#4#5#6{\oldnewlabel{#1}{{#2}{#3}}}
\AtEndDocument{\ifx\hyper@anchor\@undefined
\let\contentsline\oldcontentsline
\let\newlabel\oldnewlabel
\fi}
\fi}
\global\let\hyper@last\relax 
\gdef\HyperFirstAtBeginDocument#1{#1}
\providecommand\HyField@AuxAddToFields[1]{}
\providecommand\HyField@AuxAddToCoFields[2]{}
\providecommand\BKM@entry[2]{}
\BKM@entry{id=1,dest={73656374696F6E2A2E31},srcline={92},srcfile={2E2F535332312D4D73414D4C5F5F30332D325F5F4164616C696E655F646566696E6974696F6E2E746578}}{5C3337365C3337375C3030304D5C303030735C303030415C3030304D5C3030304C5C3030302D5C303030305C303030335C3030302D5C303030325C3030305C3034305C3030305B5C303030505C303030445C303030465C3030305D}
\BKM@entry{id=2,dest={73656374696F6E2A2E32},srcline={104},srcfile={2E2F535332312D4D73414D4C5F5F30332D325F5F4164616C696E655F646566696E6974696F6E2E746578}}{5C3337365C3337375C303030415C303030645C303030615C3030306C5C303030695C3030306E5C303030655C3030305C3034305C303030645C303030655C303030665C303030695C3030306E5C303030695C303030745C303030695C3030306F5C3030306E}
\@writefile{toc}{\contentsline {section}{MsAML-03-2 {[}\href  {SS21-MsAML__03-2__Adaline_definition.pdf}{PDF}{]}}{1}{section*.1}\protected@file@percent }
\newlabel{msaml-03-2-pdf}{{}{1}{\texorpdfstring {MsAML-03-2 {[}\href {SS21-MsAML__03-2__Adaline_definition.pdf}{PDF}{]}}{MsAML-03-2 {[}PDF{]}}}{section*.1}{}}
\@writefile{toc}{\contentsline {subsection}{Adaline definition}{1}{section*.2}\protected@file@percent }
\newlabel{adaline-definition}{{}{1}{Adaline definition}{section*.2}{}}
\@writefile{lof}{\contentsline {figure}{\numberline {1}{\ignorespaces Illustration of the Perceptron feedback loop.}}{1}{figure.1}\protected@file@percent }
\@writefile{lof}{\contentsline {figure}{\numberline {2}{\ignorespaces Illustration of the Adaline feedback loop.}}{2}{figure.2}\protected@file@percent }
\newlabel{eq_min}{{{min}}{4}{Adaline definition}{AMS.4}{}}
\newlabel{eq_negative_gradient}{{{negative gradient}}{4}{Adaline definition}{AMS.6}{}}
\newlabel{adaline}{{}{5}{Adaline definition}{equation.0.18}{}}
\newlabel{section}{{}{6}{Adaline definition}{equation.0.25}{}}
\gdef \@abspage@last{6}
