\relax 
\providecommand\hyper@newdestlabel[2]{}
\providecommand\HyperFirstAtBeginDocument{\AtBeginDocument}
\HyperFirstAtBeginDocument{\ifx\hyper@anchor\@undefined
\global\let\oldcontentsline\contentsline
\gdef\contentsline#1#2#3#4{\oldcontentsline{#1}{#2}{#3}}
\global\let\oldnewlabel\newlabel
\gdef\newlabel#1#2{\newlabelxx{#1}#2}
\gdef\newlabelxx#1#2#3#4#5#6{\oldnewlabel{#1}{{#2}{#3}}}
\AtEndDocument{\ifx\hyper@anchor\@undefined
\let\contentsline\oldcontentsline
\let\newlabel\oldnewlabel
\fi}
\fi}
\global\let\hyper@last\relax 
\gdef\HyperFirstAtBeginDocument#1{#1}
\providecommand\HyField@AuxAddToFields[1]{}
\providecommand\HyField@AuxAddToCoFields[2]{}
\providecommand\BKM@entry[2]{}
\BKM@entry{id=1,dest={73656374696F6E2A2E31},srcline={79},srcfile={2E2F535332312D4D73414D4C5F5F30312D53315F5F537461746973746963616C5F6672616D65776F726B2E746578}}{5C3337365C3337375C3030304D5C303030735C303030415C3030304D5C3030304C5C3030305C3034305C303030305C303030315C3030302D5C303030535C303030315C3030305C3034305C3030305B5C303030505C303030445C303030465C3030305D}
\BKM@entry{id=2,dest={73656374696F6E2A2E32},srcline={102},srcfile={2E2F535332312D4D73414D4C5F5F30312D53315F5F537461746973746963616C5F6672616D65776F726B2E746578}}{5C3337365C3337375C303030535C303030745C303030615C303030745C303030695C303030735C303030745C303030695C303030635C303030615C3030306C5C3030305C3034305C303030665C303030725C303030615C3030306D5C303030655C303030775C3030306F5C303030725C3030306B}
\@writefile{toc}{\contentsline {section}{MsAML 01-S1 {[}\href  {SS21-MsAML__01-S1__Statistical_framework.pdf}{PDF}{]}}{1}{section*.1}\protected@file@percent }
\newlabel{msaml-01-s1-pdf}{{}{1}{\texorpdfstring {MsAML 01-S1 {[}\href {SS21-MsAML__01-S1__Statistical_framework.pdf}{PDF}{]}}{MsAML 01-S1 {[}PDF{]}}}{section*.1}{}}
\@writefile{toc}{\contentsline {subsection}{Statistical framework}{1}{section*.2}\protected@file@percent }
\newlabel{statistical-framework}{{}{1}{Statistical framework}{section*.2}{}}
\BKM@entry{id=3,dest={73656374696F6E2A2E33},srcline={264},srcfile={2E2F535332312D4D73414D4C5F5F30312D53315F5F537461746973746963616C5F6672616D65776F726B2E746578}}{5C3337365C3337375C303030435C3030306C5C303030615C303030735C303030735C303030695C303030665C303030695C303030635C303030615C303030745C303030695C3030306F5C3030306E}
\@writefile{toc}{\contentsline {subsubsection}{Classification}{3}{section*.3}\protected@file@percent }
\newlabel{classification}{{}{3}{Classification}{section*.3}{}}
\BKM@entry{id=4,dest={73656374696F6E2A2E34},srcline={354},srcfile={2E2F535332312D4D73414D4C5F5F30312D53315F5F537461746973746963616C5F6672616D65776F726B2E746578}}{5C3337365C3337375C303030525C303030655C303030675C303030725C303030655C303030735C303030735C303030695C3030306F5C3030306E}
\newlabel{bayes-classifier}{{}{4}{Classification}{equation.0.24}{}}
\BKM@entry{id=5,dest={73656374696F6E2A2E35},srcline={410},srcfile={2E2F535332312D4D73414D4C5F5F30312D53315F5F537461746973746963616C5F6672616D65776F726B2E746578}}{5C3337365C3337375C303030415C3030305C3034305C303030635C303030685C303030615C3030306C5C3030306C5C303030655C3030306E5C303030675C303030655C3030305C3034305C303030695C3030306E5C3030305C3034305C303030735C303030745C303030615C303030745C303030695C303030735C303030745C303030695C303030635C30303073}
\@writefile{toc}{\contentsline {subsubsection}{Regression}{5}{section*.4}\protected@file@percent }
\newlabel{regression}{{}{5}{Regression}{section*.4}{}}
\newlabel{geometric-nature-of-conditional-expectation}{{}{5}{Regression}{equation.0.28}{}}
\@writefile{toc}{\contentsline {subsubsection}{A challenge in statistics}{5}{section*.5}\protected@file@percent }
\newlabel{a-challenge-in-statistics}{{}{5}{A challenge in statistics}{section*.5}{}}
\newlabel{expectation-of-the-empirical-risk}{{}{6}{A challenge in statistics}{equation.0.31}{}}
\gdef \@abspage@last{6}
