\relax 
\providecommand\hyper@newdestlabel[2]{}
\providecommand\HyperFirstAtBeginDocument{\AtBeginDocument}
\HyperFirstAtBeginDocument{\ifx\hyper@anchor\@undefined
\global\let\oldcontentsline\contentsline
\gdef\contentsline#1#2#3#4{\oldcontentsline{#1}{#2}{#3}}
\global\let\oldnewlabel\newlabel
\gdef\newlabel#1#2{\newlabelxx{#1}#2}
\gdef\newlabelxx#1#2#3#4#5#6{\oldnewlabel{#1}{{#2}{#3}}}
\AtEndDocument{\ifx\hyper@anchor\@undefined
\let\contentsline\oldcontentsline
\let\newlabel\oldnewlabel
\fi}
\fi}
\global\let\hyper@last\relax 
\gdef\HyperFirstAtBeginDocument#1{#1}
\providecommand\HyField@AuxAddToFields[1]{}
\providecommand\HyField@AuxAddToCoFields[2]{}
\providecommand\BKM@entry[2]{}
\BKM@entry{id=1,dest={73656374696F6E2A2E31},srcline={79},srcfile={2E2F535332312D4D73414D4C5F5F30342D53325F5F436F6E63656E74726174696F6E5F696E657175616C69746965732E746578}}{5C3337365C3337375C3030304D5C303030735C303030415C3030304D5C3030304C5C3030302D5C303030305C303030345C3030302D5C303030535C303030325C3030305C3034305C3030305B5C303030505C303030445C303030465C3030305D}
\BKM@entry{id=2,dest={73656374696F6E2A2E32},srcline={93},srcfile={2E2F535332312D4D73414D4C5F5F30342D53325F5F436F6E63656E74726174696F6E5F696E657175616C69746965732E746578}}{5C3337365C3337375C303030435C3030306F5C3030306E5C303030635C303030655C3030306E5C303030745C303030725C303030615C303030745C303030695C3030306F5C3030306E5C3030305C3034305C303030695C3030306E5C303030655C303030715C303030755C303030615C3030306C5C303030695C303030745C303030695C303030655C30303073}
\@writefile{toc}{\contentsline {section}{MsAML-04-S2 {[}\href  {SS21-MsAML__04-S2__Concentration_inequalities.pdf}{PDF}{]}}{1}{section*.1}\protected@file@percent }
\newlabel{msaml-04-s2-pdf}{{}{1}{\texorpdfstring {MsAML-04-S2 {[}\href {SS21-MsAML__04-S2__Concentration_inequalities.pdf}{PDF}{]}}{MsAML-04-S2 {[}PDF{]}}}{section*.1}{}}
\@writefile{toc}{\contentsline {subsection}{Concentration inequalities}{1}{section*.2}\protected@file@percent }
\newlabel{concentration-inequalities}{{}{1}{Concentration inequalities}{section*.2}{}}
\newlabel{hoeffdingss-inequality}{{}{1}{Concentration inequalities}{section*.2}{}}
\newlabel{eq_1}{{{1}}{2}{Concentration inequalities}{AMS.4}{}}
\newlabel{eq_2}{{{2}}{2}{Concentration inequalities}{AMS.6}{}}
\newlabel{eq_3}{{{3}}{3}{Concentration inequalities}{AMS.8}{}}
\gdef \@abspage@last{4}
