\relax 
\providecommand\hyper@newdestlabel[2]{}
\providecommand\HyperFirstAtBeginDocument{\AtBeginDocument}
\HyperFirstAtBeginDocument{\ifx\hyper@anchor\@undefined
\global\let\oldcontentsline\contentsline
\gdef\contentsline#1#2#3#4{\oldcontentsline{#1}{#2}{#3}}
\global\let\oldnewlabel\newlabel
\gdef\newlabel#1#2{\newlabelxx{#1}#2}
\gdef\newlabelxx#1#2#3#4#5#6{\oldnewlabel{#1}{{#2}{#3}}}
\AtEndDocument{\ifx\hyper@anchor\@undefined
\let\contentsline\oldcontentsline
\let\newlabel\oldnewlabel
\fi}
\fi}
\global\let\hyper@last\relax 
\gdef\HyperFirstAtBeginDocument#1{#1}
\providecommand\HyField@AuxAddToFields[1]{}
\providecommand\HyField@AuxAddToCoFields[2]{}
\providecommand\BKM@entry[2]{}
\BKM@entry{id=1,dest={73656374696F6E2A2E31},srcline={92},srcfile={2E2F535332312D4D73414D4C5F5F30332D315F5F50657263657074726F6E5F636F6E76657267656E63652E746578}}{5C3337365C3337375C3030304D5C303030735C303030415C3030304D5C3030304C5C3030302D5C303030305C303030335C3030302D5C303030315C3030305C3034305C3030305B5C303030505C303030445C303030465C3030305D}
\BKM@entry{id=2,dest={73656374696F6E2A2E32},srcline={104},srcfile={2E2F535332312D4D73414D4C5F5F30332D315F5F50657263657074726F6E5F636F6E76657267656E63652E746578}}{5C3337365C3337375C303030505C303030655C303030725C303030635C303030655C303030705C303030745C303030725C3030306F5C3030306E5C3030305C3034305C303030635C3030306F5C3030306E5C303030765C303030655C303030725C303030675C303030655C3030306E5C303030635C30303065}
\@writefile{toc}{\contentsline {section}{MsAML-03-1 {[}\href  {SS21-MsAML__03-1__Perceptron_convergence.pdf}{PDF}{]}}{1}{section*.1}\protected@file@percent }
\newlabel{msaml-03-1-pdf}{{}{1}{\texorpdfstring {MsAML-03-1 {[}\href {SS21-MsAML__03-1__Perceptron_convergence.pdf}{PDF}{]}}{MsAML-03-1 {[}PDF{]}}}{section*.1}{}}
\@writefile{toc}{\contentsline {subsection}{Perceptron convergence}{1}{section*.2}\protected@file@percent }
\newlabel{perceptron-convergence}{{}{1}{Perceptron convergence}{section*.2}{}}
\newlabel{linear-separability}{{}{1}{Perceptron convergence}{section*.2}{}}
\newlabel{absolute-separability-for-finite-sets}{{}{1}{Perceptron convergence}{equation.0.3}{}}
\newlabel{eq_alpha}{{{$\mitalpha $}}{1}{Perceptron convergence}{AMS.5}{}}
\newlabel{eq_beta}{{{$\mitbeta $}}{1}{Perceptron convergence}{AMS.6}{}}
\@writefile{lof}{\contentsline {figure}{\numberline {1}{\ignorespaces A sketch of the proof.}}{2}{figure.1}\protected@file@percent }
\newlabel{perceptron-convergence-1}{{}{3}{Perceptron convergence}{equation.0.7}{}}
\newlabel{eq_misclassification}{{{misclassification}}{3}{Perceptron convergence}{AMS.8}{}}
\@writefile{lof}{\contentsline {figure}{\numberline {2}{\ignorespaces Training data projected to unit sphere, optimal hyperplane \(w^*\), and current hyperplane \(w^{(t)}\) after the \(t\)-th update.}}{4}{figure.2}\protected@file@percent }
\newlabel{eq_cos}{{{cos}}{5}{Perceptron convergence}{AMS.10}{}}
\newlabel{section}{{}{6}{Perceptron convergence}{equation.0.24}{}}
\gdef \@abspage@last{6}
