\relax 
\providecommand\hyper@newdestlabel[2]{}
\providecommand\HyperFirstAtBeginDocument{\AtBeginDocument}
\HyperFirstAtBeginDocument{\ifx\hyper@anchor\@undefined
\global\let\oldcontentsline\contentsline
\gdef\contentsline#1#2#3#4{\oldcontentsline{#1}{#2}{#3}}
\global\let\oldnewlabel\newlabel
\gdef\newlabel#1#2{\newlabelxx{#1}#2}
\gdef\newlabelxx#1#2#3#4#5#6{\oldnewlabel{#1}{{#2}{#3}}}
\AtEndDocument{\ifx\hyper@anchor\@undefined
\let\contentsline\oldcontentsline
\let\newlabel\oldnewlabel
\fi}
\fi}
\global\let\hyper@last\relax 
\gdef\HyperFirstAtBeginDocument#1{#1}
\providecommand\HyField@AuxAddToFields[1]{}
\providecommand\HyField@AuxAddToCoFields[2]{}
\providecommand\BKM@entry[2]{}
\BKM@entry{id=1,dest={73656374696F6E2A2E31},srcline={79},srcfile={2E2F535332312D4D73414D4C5F5F30342D53315F5F5041435F6C6561726E696E675F6672616D65776F726B2E746578}}{5C3337365C3337375C3030304D5C303030735C303030415C3030304D5C3030304C5C3030302D5C303030305C303030345C3030302D5C303030535C303030315C3030305C3034305C3030305B5C303030505C303030445C303030465C3030305D}
\BKM@entry{id=2,dest={73656374696F6E2A2E32},srcline={97},srcfile={2E2F535332312D4D73414D4C5F5F30342D53315F5F5041435F6C6561726E696E675F6672616D65776F726B2E746578}}{5C3337365C3337375C303030505C303030415C303030435C3030305C3034305C3030306C5C303030655C303030615C303030725C3030306E5C303030695C3030306E5C303030675C3030305C3034305C303030665C303030725C303030615C3030306D5C303030655C303030775C3030306F5C303030725C3030306B}
\@writefile{toc}{\contentsline {section}{MsAML-04-S1 {[}\href  {SS21-MsAML__04-S1__PAC_learning_framework.pdf}{PDF}{]}}{1}{section*.1}\protected@file@percent }
\newlabel{msaml-04-s1-pdf}{{}{1}{\texorpdfstring {MsAML-04-S1 {[}\href {SS21-MsAML__04-S1__PAC_learning_framework.pdf}{PDF}{]}}{MsAML-04-S1 {[}PDF{]}}}{section*.1}{}}
\@writefile{toc}{\contentsline {subsection}{PAC learning framework}{1}{section*.2}\protected@file@percent }
\newlabel{pac-learning-framework}{{}{1}{PAC learning framework}{section*.2}{}}
\BKM@entry{id=3,dest={73656374696F6E2A2E33},srcline={216},srcfile={2E2F535332312D4D73414D4C5F5F30342D53315F5F5041435F6C6561726E696E675F6672616D65776F726B2E746578}}{5C3337365C3337375C303030435C3030306F5C3030306E5C303030735C303030695C303030735C303030745C303030655C3030306E5C303030745C3030305C3034305C303030635C303030615C303030735C30303065}
\newlabel{pac-learnable-in-the-deterministic-case}{{}{2}{PAC learning framework}{equation.0.2}{}}
\@writefile{toc}{\contentsline {subsubsection}{Consistent case}{3}{section*.3}\protected@file@percent }
\newlabel{consistent-case}{{}{3}{Consistent case}{section*.3}{}}
\newlabel{consistent-and-deterministic-case-for-finite-hypothesis-spaces}{{}{3}{Consistent case}{equation.0.10}{}}
\gdef \@abspage@last{4}
