\relax 
\providecommand\hyper@newdestlabel[2]{}
\providecommand\HyperFirstAtBeginDocument{\AtBeginDocument}
\HyperFirstAtBeginDocument{\ifx\hyper@anchor\@undefined
\global\let\oldcontentsline\contentsline
\gdef\contentsline#1#2#3#4{\oldcontentsline{#1}{#2}{#3}}
\global\let\oldnewlabel\newlabel
\gdef\newlabel#1#2{\newlabelxx{#1}#2}
\gdef\newlabelxx#1#2#3#4#5#6{\oldnewlabel{#1}{{#2}{#3}}}
\AtEndDocument{\ifx\hyper@anchor\@undefined
\let\contentsline\oldcontentsline
\let\newlabel\oldnewlabel
\fi}
\fi}
\global\let\hyper@last\relax 
\gdef\HyperFirstAtBeginDocument#1{#1}
\providecommand\HyField@AuxAddToFields[1]{}
\providecommand\HyField@AuxAddToCoFields[2]{}
\providecommand\BKM@entry[2]{}
\BKM@entry{id=1,dest={73656374696F6E2A2E31},srcline={92},srcfile={2E2F535332312D4D73414D4C5F5F30312D335F5F537570657276697365645F6C6561726E696E675F73657474696E672E746578}}{5C3337365C3337375C303030535C303030535C303030325C303030315C3030302D5C3030304D5C303030735C303030415C3030304D5C3030304C5C3030305C3034305C303030305C303030315C3030302D5C303030335C3030305C3034305C3030305B5C303030505C303030445C303030465C3030305D}
\BKM@entry{id=2,dest={73656374696F6E2A2E32},srcline={106},srcfile={2E2F535332312D4D73414D4C5F5F30312D335F5F537570657276697365645F6C6561726E696E675F73657474696E672E746578}}{5C3337365C3337375C303030535C303030755C303030705C303030655C303030725C303030765C303030695C303030735C303030655C303030645C3030305C3034305C3030306C5C303030655C303030615C303030725C3030306E5C303030695C3030306E5C303030675C3030305C3034305C303030735C303030655C303030745C303030745C303030695C3030306E5C30303067}
\@writefile{toc}{\contentsline {section}{SS21-MsAML 01-3 {[}\href  {SS21-MsAML__01-3__Supervised_learning_setting.pdf}{PDF}{]}}{1}{section*.1}\protected@file@percent }
\newlabel{ss21-msaml-01-3-pdf}{{}{1}{\texorpdfstring {SS21-MsAML 01-3 {[}\href {SS21-MsAML__01-3__Supervised_learning_setting.pdf}{PDF}{]}}{SS21-MsAML 01-3 {[}PDF{]}}}{section*.1}{}}
\@writefile{toc}{\contentsline {subsection}{Supervised learning setting}{1}{section*.2}\protected@file@percent }
\newlabel{supervised-learning-setting}{{}{1}{Supervised learning setting}{section*.2}{}}
\@writefile{lof}{\contentsline {figure}{\numberline {1}{\ignorespaces Iris setosa}}{1}{figure.1}\protected@file@percent }
\@writefile{lof}{\contentsline {figure}{\numberline {2}{\ignorespaces Iris versicolor}}{2}{figure.2}\protected@file@percent }
\@writefile{lof}{\contentsline {figure}{\numberline {3}{\ignorespaces Iris virginica}}{3}{figure.3}\protected@file@percent }
\@writefile{lof}{\contentsline {figure}{\numberline {4}{\ignorespaces Iris virginica}}{3}{figure.4}\protected@file@percent }
\@writefile{lof}{\contentsline {figure}{\numberline {5}{\ignorespaces Iris data scatter plot of sepal width and length.}}{4}{figure.5}\protected@file@percent }
\gdef \@abspage@last{5}
